{
  "id": "E2AKZM8YBFKD37",
  "arn": "arn:aws:cloudfront::978432760342:distribution/E2AKZM8YBFKD37",
  "url": "https://d3sn0s006zlbs2.cloudfront.net",
  "region": "us-east-1",
  "origins": [
    {
      "url": "http://afn-contentful-next-prod.s3.amazonaws.com",
      "private": true,
      "pathPatterns": {
        "_next/*": {
          "ttl": 86400
        },
        "static/*": {
          "ttl": 86400
        }
      }
    }
  ],
  "defaults": {
    "ttl": 0,
    "forward": {
      "cookies": "all",
      "queryString": true
    },
    "allowedHttpMethods": [
      "HEAD",
      "GET"
    ],
    "lambda@edge": {
      "origin-request": "arn:aws:lambda:us-east-1:978432760342:function:tr4w1u-r968x08:2"
    }
  }
}